^C:\USERS\NILSK\DOCUMENTS\GIT\SPIKE9\ZORKISH\ZORKISH\ABOUT.CPP|C:\USERS\NILSK\DOCUMENTS\GIT\SPIKE9\ZORKISH\ZORKISH\COMMANDMANAGER.CPP|C:\USERS\NILSK\DOCUMENTS\GIT\SPIKE9\ZORKISH\ZORKISH\GAMELOGIC.CPP|C:\USERS\NILSK\DOCUMENTS\GIT\SPIKE9\ZORKISH\ZORKISH\GAMEOBJECT.CPP|C:\USERS\NILSK\DOCUMENTS\GIT\SPIKE9\ZORKISH\ZORKISH\HELP.CPP|C:\USERS\NILSK\DOCUMENTS\GIT\SPIKE9\ZORKISH\ZORKISH\HIGHSCORE.CPP|C:\USERS\NILSK\DOCUMENTS\GIT\SPIKE9\ZORKISH\ZORKISH\INVENTORY.CPP|C:\USERS\NILSK\DOCUMENTS\GIT\SPIKE9\ZORKISH\ZORKISH\LEVELREADER.CPP|C:\USERS\NILSK\DOCUMENTS\GIT\SPIKE9\ZORKISH\ZORKISH\LOCATION.CPP|C:\USERS\NILSK\DOCUMENTS\GIT\SPIKE9\ZORKISH\ZORKISH\MAIN.CPP|C:\USERS\NILSK\DOCUMENTS\GIT\SPIKE9\ZORKISH\ZORKISH\MAINSTATE.CPP|C:\USERS\NILSK\DOCUMENTS\GIT\SPIKE9\ZORKISH\ZORKISH\PLAYER.CPP|C:\USERS\NILSK\DOCUMENTS\GIT\SPIKE9\ZORKISH\ZORKISH\SELECTADVENTURE.CPP|C:\USERS\NILSK\DOCUMENTS\GIT\SPIKE9\ZORKISH\ZORKISH\STATEBASE.CPP|C:\USERS\NILSK\DOCUMENTS\GIT\SPIKE9\ZORKISH\ZORKISH\STATEMANAGER.CPP
C:\USERS\NILSK\DOCUMENTS\GIT\SPIKE9\ZORKISH\ZORKISH\DEBUG\VC140.PDB
C:\USERS\NILSK\DOCUMENTS\GIT\SPIKE9\ZORKISH\ZORKISH\DEBUG\VC140.IDB
C:\USERS\NILSK\DOCUMENTS\GIT\SPIKE9\ZORKISH\ZORKISH\DEBUG\ABOUT.OBJ
C:\USERS\NILSK\DOCUMENTS\GIT\SPIKE9\ZORKISH\ZORKISH\DEBUG\COMMANDMANAGER.OBJ
C:\USERS\NILSK\DOCUMENTS\GIT\SPIKE9\ZORKISH\ZORKISH\DEBUG\GAMELOGIC.OBJ
C:\USERS\NILSK\DOCUMENTS\GIT\SPIKE9\ZORKISH\ZORKISH\DEBUG\GAMEOBJECT.OBJ
C:\USERS\NILSK\DOCUMENTS\GIT\SPIKE9\ZORKISH\ZORKISH\DEBUG\HELP.OBJ
C:\USERS\NILSK\DOCUMENTS\GIT\SPIKE9\ZORKISH\ZORKISH\DEBUG\HIGHSCORE.OBJ
C:\USERS\NILSK\DOCUMENTS\GIT\SPIKE9\ZORKISH\ZORKISH\DEBUG\INVENTORY.OBJ
C:\USERS\NILSK\DOCUMENTS\GIT\SPIKE9\ZORKISH\ZORKISH\DEBUG\MAIN.OBJ
C:\USERS\NILSK\DOCUMENTS\GIT\SPIKE9\ZORKISH\ZORKISH\DEBUG\MAINSTATE.OBJ
C:\USERS\NILSK\DOCUMENTS\GIT\SPIKE9\ZORKISH\ZORKISH\DEBUG\SELECTADVENTURE.OBJ
C:\USERS\NILSK\DOCUMENTS\GIT\SPIKE9\ZORKISH\ZORKISH\DEBUG\STATEBASE.OBJ
C:\USERS\NILSK\DOCUMENTS\GIT\SPIKE9\ZORKISH\ZORKISH\DEBUG\LOCATION.OBJ
C:\USERS\NILSK\DOCUMENTS\GIT\SPIKE9\ZORKISH\ZORKISH\DEBUG\PLAYER.OBJ
C:\USERS\NILSK\DOCUMENTS\GIT\SPIKE9\ZORKISH\ZORKISH\DEBUG\STATEMANAGER.OBJ
C:\USERS\NILSK\DOCUMENTS\GIT\SPIKE9\ZORKISH\ZORKISH\DEBUG\LEVELREADER.OBJ
^C:\USERS\NILSK\DOCUMENTS\GIT\SPIKE9\ZORKISH\ZORKISH\ABOUT.CPP
C:\USERS\NILSK\DOCUMENTS\GIT\SPIKE9\ZORKISH\ZORKISH\DEBUG\VC140.PDB
^C:\USERS\NILSK\DOCUMENTS\GIT\SPIKE9\ZORKISH\ZORKISH\COMMANDMANAGER.CPP
C:\USERS\NILSK\DOCUMENTS\GIT\SPIKE9\ZORKISH\ZORKISH\DEBUG\VC140.PDB
C:\USERS\NILSK\DOCUMENTS\GIT\SPIKE9\ZORKISH\ZORKISH\DEBUG\VC140.IDB
C:\USERS\NILSK\DOCUMENTS\GIT\SPIKE9\ZORKISH\ZORKISH\DEBUG\COMMANDMANAGER.OBJ
^C:\USERS\NILSK\DOCUMENTS\GIT\SPIKE9\ZORKISH\ZORKISH\GAMELOGIC.CPP
C:\USERS\NILSK\DOCUMENTS\GIT\SPIKE9\ZORKISH\ZORKISH\DEBUG\VC140.PDB
^C:\USERS\NILSK\DOCUMENTS\GIT\SPIKE9\ZORKISH\ZORKISH\GAMEOBJECT.CPP
C:\USERS\NILSK\DOCUMENTS\GIT\SPIKE9\ZORKISH\ZORKISH\DEBUG\VC140.PDB
C:\USERS\NILSK\DOCUMENTS\GIT\SPIKE9\ZORKISH\ZORKISH\DEBUG\VC140.IDB
C:\USERS\NILSK\DOCUMENTS\GIT\SPIKE9\ZORKISH\ZORKISH\DEBUG\GAMEOBJECT.OBJ
^C:\USERS\NILSK\DOCUMENTS\GIT\SPIKE9\ZORKISH\ZORKISH\HELP.CPP
C:\USERS\NILSK\DOCUMENTS\GIT\SPIKE9\ZORKISH\ZORKISH\DEBUG\VC140.PDB
^C:\USERS\NILSK\DOCUMENTS\GIT\SPIKE9\ZORKISH\ZORKISH\HIGHSCORE.CPP
C:\USERS\NILSK\DOCUMENTS\GIT\SPIKE9\ZORKISH\ZORKISH\DEBUG\VC140.PDB
^C:\USERS\NILSK\DOCUMENTS\GIT\SPIKE9\ZORKISH\ZORKISH\INVENTORY.CPP
C:\USERS\NILSK\DOCUMENTS\GIT\SPIKE9\ZORKISH\ZORKISH\DEBUG\VC140.PDB
^C:\USERS\NILSK\DOCUMENTS\GIT\SPIKE9\ZORKISH\ZORKISH\LEVELREADER.CPP
C:\USERS\NILSK\DOCUMENTS\GIT\SPIKE9\ZORKISH\ZORKISH\DEBUG\VC140.PDB
C:\USERS\NILSK\DOCUMENTS\GIT\SPIKE9\ZORKISH\ZORKISH\DEBUG\VC140.IDB
C:\USERS\NILSK\DOCUMENTS\GIT\SPIKE9\ZORKISH\ZORKISH\DEBUG\LEVELREADER.OBJ
^C:\USERS\NILSK\DOCUMENTS\GIT\SPIKE9\ZORKISH\ZORKISH\MAIN.CPP
C:\USERS\NILSK\DOCUMENTS\GIT\SPIKE9\ZORKISH\ZORKISH\DEBUG\VC140.PDB
^C:\USERS\NILSK\DOCUMENTS\GIT\SPIKE9\ZORKISH\ZORKISH\MAINSTATE.CPP
C:\USERS\NILSK\DOCUMENTS\GIT\SPIKE9\ZORKISH\ZORKISH\DEBUG\VC140.PDB
^C:\USERS\NILSK\DOCUMENTS\GIT\SPIKE9\ZORKISH\ZORKISH\LOCATION.CPP
C:\USERS\NILSK\DOCUMENTS\GIT\SPIKE9\ZORKISH\ZORKISH\DEBUG\VC140.PDB
C:\USERS\NILSK\DOCUMENTS\GIT\SPIKE9\ZORKISH\ZORKISH\DEBUG\VC140.IDB
C:\USERS\NILSK\DOCUMENTS\GIT\SPIKE9\ZORKISH\ZORKISH\DEBUG\LOCATION.OBJ
^C:\USERS\NILSK\DOCUMENTS\GIT\SPIKE9\ZORKISH\ZORKISH\PLAYER.CPP
C:\USERS\NILSK\DOCUMENTS\GIT\SPIKE9\ZORKISH\ZORKISH\DEBUG\VC140.PDB
^C:\USERS\NILSK\DOCUMENTS\GIT\SPIKE9\ZORKISH\ZORKISH\SELECTADVENTURE.CPP
C:\USERS\NILSK\DOCUMENTS\GIT\SPIKE9\ZORKISH\ZORKISH\DEBUG\VC140.PDB
^C:\USERS\NILSK\DOCUMENTS\GIT\SPIKE9\ZORKISH\ZORKISH\STATEBASE.CPP
C:\USERS\NILSK\DOCUMENTS\GIT\SPIKE9\ZORKISH\ZORKISH\DEBUG\VC140.PDB
^C:\USERS\NILSK\DOCUMENTS\GIT\SPIKE9\ZORKISH\ZORKISH\STATEMANAGER.CPP
C:\USERS\NILSK\DOCUMENTS\GIT\SPIKE9\ZORKISH\ZORKISH\DEBUG\VC140.PDB
^C:\USERS\NILSK\DOCUMENTS\GIT\SPIKE9\ZORKISH\ZORKISH\ABOUT.CPP|C:\USERS\NILSK\DOCUMENTS\GIT\SPIKE9\ZORKISH\ZORKISH\COMMANDMANAGER.CPP|C:\USERS\NILSK\DOCUMENTS\GIT\SPIKE9\ZORKISH\ZORKISH\GAMELOGIC.CPP|C:\USERS\NILSK\DOCUMENTS\GIT\SPIKE9\ZORKISH\ZORKISH\HELP.CPP|C:\USERS\NILSK\DOCUMENTS\GIT\SPIKE9\ZORKISH\ZORKISH\HIGHSCORE.CPP|C:\USERS\NILSK\DOCUMENTS\GIT\SPIKE9\ZORKISH\ZORKISH\LEVELREADER.CPP|C:\USERS\NILSK\DOCUMENTS\GIT\SPIKE9\ZORKISH\ZORKISH\LOCATION.CPP|C:\USERS\NILSK\DOCUMENTS\GIT\SPIKE9\ZORKISH\ZORKISH\MAIN.CPP|C:\USERS\NILSK\DOCUMENTS\GIT\SPIKE9\ZORKISH\ZORKISH\MAINSTATE.CPP|C:\USERS\NILSK\DOCUMENTS\GIT\SPIKE9\ZORKISH\ZORKISH\PLAYER.CPP|C:\USERS\NILSK\DOCUMENTS\GIT\SPIKE9\ZORKISH\ZORKISH\SELECTADVENTURE.CPP|C:\USERS\NILSK\DOCUMENTS\GIT\SPIKE9\ZORKISH\ZORKISH\STATEBASE.CPP|C:\USERS\NILSK\DOCUMENTS\GIT\SPIKE9\ZORKISH\ZORKISH\STATEMANAGER.CPP
C:\USERS\NILSK\DOCUMENTS\GIT\SPIKE9\ZORKISH\ZORKISH\DEBUG\VC140.PDB
C:\USERS\NILSK\DOCUMENTS\GIT\SPIKE9\ZORKISH\ZORKISH\DEBUG\VC140.IDB
C:\USERS\NILSK\DOCUMENTS\GIT\SPIKE9\ZORKISH\ZORKISH\DEBUG\LEVELREADER.OBJ
C:\USERS\NILSK\DOCUMENTS\GIT\SPIKE9\ZORKISH\ZORKISH\DEBUG\STATEMANAGER.OBJ
C:\USERS\NILSK\DOCUMENTS\GIT\SPIKE9\ZORKISH\ZORKISH\DEBUG\ABOUT.OBJ
C:\USERS\NILSK\DOCUMENTS\GIT\SPIKE9\ZORKISH\ZORKISH\DEBUG\COMMANDMANAGER.OBJ
C:\USERS\NILSK\DOCUMENTS\GIT\SPIKE9\ZORKISH\ZORKISH\DEBUG\GAMELOGIC.OBJ
C:\USERS\NILSK\DOCUMENTS\GIT\SPIKE9\ZORKISH\ZORKISH\DEBUG\HELP.OBJ
C:\USERS\NILSK\DOCUMENTS\GIT\SPIKE9\ZORKISH\ZORKISH\DEBUG\HIGHSCORE.OBJ
C:\USERS\NILSK\DOCUMENTS\GIT\SPIKE9\ZORKISH\ZORKISH\DEBUG\MAINSTATE.OBJ
C:\USERS\NILSK\DOCUMENTS\GIT\SPIKE9\ZORKISH\ZORKISH\DEBUG\SELECTADVENTURE.OBJ
C:\USERS\NILSK\DOCUMENTS\GIT\SPIKE9\ZORKISH\ZORKISH\DEBUG\STATEBASE.OBJ
C:\USERS\NILSK\DOCUMENTS\GIT\SPIKE9\ZORKISH\ZORKISH\DEBUG\MAIN.OBJ
C:\USERS\NILSK\DOCUMENTS\GIT\SPIKE9\ZORKISH\ZORKISH\DEBUG\LOCATION.OBJ
^C:\USERS\NILSK\DOCUMENTS\GIT\SPIKE9\ZORKISH\ZORKISH\LOCATION.CPP|C:\USERS\NILSK\DOCUMENTS\GIT\SPIKE9\ZORKISH\ZORKISH\PLAYER.CPP
C:\USERS\NILSK\DOCUMENTS\GIT\SPIKE9\ZORKISH\ZORKISH\DEBUG\VC140.PDB
C:\USERS\NILSK\DOCUMENTS\GIT\SPIKE9\ZORKISH\ZORKISH\DEBUG\VC140.IDB
C:\USERS\NILSK\DOCUMENTS\GIT\SPIKE9\ZORKISH\ZORKISH\DEBUG\LOCATION.OBJ
C:\USERS\NILSK\DOCUMENTS\GIT\SPIKE9\ZORKISH\ZORKISH\DEBUG\PLAYER.OBJ
^C:\USERS\NILSK\DOCUMENTS\GIT\SPIKE9\ZORKISH\ZORKISH\COMMANDMANAGER.CPP|C:\USERS\NILSK\DOCUMENTS\GIT\SPIKE9\ZORKISH\ZORKISH\GAMELOGIC.CPP|C:\USERS\NILSK\DOCUMENTS\GIT\SPIKE9\ZORKISH\ZORKISH\STATEMANAGER.CPP
C:\USERS\NILSK\DOCUMENTS\GIT\SPIKE9\ZORKISH\ZORKISH\DEBUG\VC140.PDB
C:\USERS\NILSK\DOCUMENTS\GIT\SPIKE9\ZORKISH\ZORKISH\DEBUG\VC140.IDB
C:\USERS\NILSK\DOCUMENTS\GIT\SPIKE9\ZORKISH\ZORKISH\DEBUG\COMMANDMANAGER.OBJ
C:\USERS\NILSK\DOCUMENTS\GIT\SPIKE9\ZORKISH\ZORKISH\DEBUG\GAMELOGIC.OBJ
C:\USERS\NILSK\DOCUMENTS\GIT\SPIKE9\ZORKISH\ZORKISH\DEBUG\STATEMANAGER.OBJ
^C:\USERS\NILSK\DOCUMENTS\GIT\SPIKE9\ZORKISH\ZORKISH\GAMEOBJECT.CPP|C:\USERS\NILSK\DOCUMENTS\GIT\SPIKE9\ZORKISH\ZORKISH\LOCATION.CPP
C:\USERS\NILSK\DOCUMENTS\GIT\SPIKE9\ZORKISH\ZORKISH\DEBUG\VC140.PDB
C:\USERS\NILSK\DOCUMENTS\GIT\SPIKE9\ZORKISH\ZORKISH\DEBUG\VC140.IDB
C:\USERS\NILSK\DOCUMENTS\GIT\SPIKE9\ZORKISH\ZORKISH\DEBUG\GAMEOBJECT.OBJ
C:\USERS\NILSK\DOCUMENTS\GIT\SPIKE9\ZORKISH\ZORKISH\DEBUG\LOCATION.OBJ
^C:\USERS\NILSK\DOCUMENTS\GIT\SPIKE10\ZORKISH\ZORKISH\ABOUT.CPP|C:\USERS\NILSK\DOCUMENTS\GIT\SPIKE10\ZORKISH\ZORKISH\COMMANDMANAGER.CPP|C:\USERS\NILSK\DOCUMENTS\GIT\SPIKE10\ZORKISH\ZORKISH\GAMELOGIC.CPP|C:\USERS\NILSK\DOCUMENTS\GIT\SPIKE10\ZORKISH\ZORKISH\GAMEOBJECT.CPP|C:\USERS\NILSK\DOCUMENTS\GIT\SPIKE10\ZORKISH\ZORKISH\HEALTHCOMPONENT.CPP|C:\USERS\NILSK\DOCUMENTS\GIT\SPIKE10\ZORKISH\ZORKISH\HELP.CPP|C:\USERS\NILSK\DOCUMENTS\GIT\SPIKE10\ZORKISH\ZORKISH\HIGHSCORE.CPP|C:\USERS\NILSK\DOCUMENTS\GIT\SPIKE10\ZORKISH\ZORKISH\INVENTORY.CPP|C:\USERS\NILSK\DOCUMENTS\GIT\SPIKE10\ZORKISH\ZORKISH\LEVELREADER.CPP|C:\USERS\NILSK\DOCUMENTS\GIT\SPIKE10\ZORKISH\ZORKISH\LOCATION.CPP|C:\USERS\NILSK\DOCUMENTS\GIT\SPIKE10\ZORKISH\ZORKISH\MAIN.CPP|C:\USERS\NILSK\DOCUMENTS\GIT\SPIKE10\ZORKISH\ZORKISH\MAINSTATE.CPP|C:\USERS\NILSK\DOCUMENTS\GIT\SPIKE10\ZORKISH\ZORKISH\PLAYER.CPP|C:\USERS\NILSK\DOCUMENTS\GIT\SPIKE10\ZORKISH\ZORKISH\SELECTADVENTURE.CPP|C:\USERS\NILSK\DOCUMENTS\GIT\SPIKE10\ZORKISH\ZORKISH\STATEBASE.CPP|C:\USERS\NILSK\DOCUMENTS\GIT\SPIKE10\ZORKISH\ZORKISH\STATEMANAGER.CPP
C:\USERS\NILSK\DOCUMENTS\GIT\SPIKE10\ZORKISH\ZORKISH\DEBUG\VC140.PDB
C:\USERS\NILSK\DOCUMENTS\GIT\SPIKE10\ZORKISH\ZORKISH\DEBUG\VC140.IDB
C:\USERS\NILSK\DOCUMENTS\GIT\SPIKE10\ZORKISH\ZORKISH\DEBUG\ABOUT.OBJ
C:\USERS\NILSK\DOCUMENTS\GIT\SPIKE10\ZORKISH\ZORKISH\DEBUG\COMMANDMANAGER.OBJ
C:\USERS\NILSK\DOCUMENTS\GIT\SPIKE10\ZORKISH\ZORKISH\DEBUG\GAMELOGIC.OBJ
C:\USERS\NILSK\DOCUMENTS\GIT\SPIKE10\ZORKISH\ZORKISH\DEBUG\GAMEOBJECT.OBJ
C:\USERS\NILSK\DOCUMENTS\GIT\SPIKE10\ZORKISH\ZORKISH\DEBUG\HEALTHCOMPONENT.OBJ
C:\USERS\NILSK\DOCUMENTS\GIT\SPIKE10\ZORKISH\ZORKISH\DEBUG\HELP.OBJ
C:\USERS\NILSK\DOCUMENTS\GIT\SPIKE10\ZORKISH\ZORKISH\DEBUG\HIGHSCORE.OBJ
C:\USERS\NILSK\DOCUMENTS\GIT\SPIKE10\ZORKISH\ZORKISH\DEBUG\INVENTORY.OBJ
C:\USERS\NILSK\DOCUMENTS\GIT\SPIKE10\ZORKISH\ZORKISH\DEBUG\LEVELREADER.OBJ
C:\USERS\NILSK\DOCUMENTS\GIT\SPIKE10\ZORKISH\ZORKISH\DEBUG\MAIN.OBJ
C:\USERS\NILSK\DOCUMENTS\GIT\SPIKE10\ZORKISH\ZORKISH\DEBUG\MAINSTATE.OBJ
C:\USERS\NILSK\DOCUMENTS\GIT\SPIKE10\ZORKISH\ZORKISH\DEBUG\LOCATION.OBJ
C:\USERS\NILSK\DOCUMENTS\GIT\SPIKE10\ZORKISH\ZORKISH\DEBUG\PLAYER.OBJ
C:\USERS\NILSK\DOCUMENTS\GIT\SPIKE10\ZORKISH\ZORKISH\DEBUG\SELECTADVENTURE.OBJ
C:\USERS\NILSK\DOCUMENTS\GIT\SPIKE10\ZORKISH\ZORKISH\DEBUG\STATEBASE.OBJ
C:\USERS\NILSK\DOCUMENTS\GIT\SPIKE10\ZORKISH\ZORKISH\DEBUG\STATEMANAGER.OBJ
^C:\USERS\NILSK\DOCUMENTS\GIT\SPIKE10\ZORKISH\ZORKISH\ABOUT.CPP
C:\USERS\NILSK\DOCUMENTS\GIT\SPIKE10\ZORKISH\ZORKISH\DEBUG\VC140.PDB
^C:\USERS\NILSK\DOCUMENTS\GIT\SPIKE10\ZORKISH\ZORKISH\COMMANDMANAGER.CPP
C:\USERS\NILSK\DOCUMENTS\GIT\SPIKE10\ZORKISH\ZORKISH\DEBUG\VC140.PDB
^C:\USERS\NILSK\DOCUMENTS\GIT\SPIKE10\ZORKISH\ZORKISH\GAMELOGIC.CPP
C:\USERS\NILSK\DOCUMENTS\GIT\SPIKE10\ZORKISH\ZORKISH\DEBUG\VC140.PDB
^C:\USERS\NILSK\DOCUMENTS\GIT\SPIKE10\ZORKISH\ZORKISH\GAMEOBJECT.CPP
C:\USERS\NILSK\DOCUMENTS\GIT\SPIKE10\ZORKISH\ZORKISH\DEBUG\VC140.PDB
C:\USERS\NILSK\DOCUMENTS\GIT\SPIKE10\ZORKISH\ZORKISH\DEBUG\VC140.IDB
C:\USERS\NILSK\DOCUMENTS\GIT\SPIKE10\ZORKISH\ZORKISH\DEBUG\GAMEOBJECT.OBJ
^C:\USERS\NILSK\DOCUMENTS\GIT\SPIKE10\ZORKISH\ZORKISH\HEALTHCOMPONENT.CPP
C:\USERS\NILSK\DOCUMENTS\GIT\SPIKE10\ZORKISH\ZORKISH\DEBUG\VC140.PDB
^C:\USERS\NILSK\DOCUMENTS\GIT\SPIKE10\ZORKISH\ZORKISH\HELP.CPP
C:\USERS\NILSK\DOCUMENTS\GIT\SPIKE10\ZORKISH\ZORKISH\DEBUG\VC140.PDB
^C:\USERS\NILSK\DOCUMENTS\GIT\SPIKE10\ZORKISH\ZORKISH\HIGHSCORE.CPP
C:\USERS\NILSK\DOCUMENTS\GIT\SPIKE10\ZORKISH\ZORKISH\DEBUG\VC140.PDB
^C:\USERS\NILSK\DOCUMENTS\GIT\SPIKE10\ZORKISH\ZORKISH\INVENTORY.CPP
C:\USERS\NILSK\DOCUMENTS\GIT\SPIKE10\ZORKISH\ZORKISH\DEBUG\VC140.PDB
^C:\USERS\NILSK\DOCUMENTS\GIT\SPIKE10\ZORKISH\ZORKISH\LEVELREADER.CPP
C:\USERS\NILSK\DOCUMENTS\GIT\SPIKE10\ZORKISH\ZORKISH\DEBUG\VC140.PDB
C:\USERS\NILSK\DOCUMENTS\GIT\SPIKE10\ZORKISH\ZORKISH\DEBUG\VC140.IDB
C:\USERS\NILSK\DOCUMENTS\GIT\SPIKE10\ZORKISH\ZORKISH\DEBUG\LEVELREADER.OBJ
^C:\USERS\NILSK\DOCUMENTS\GIT\SPIKE10\ZORKISH\ZORKISH\MAIN.CPP
C:\USERS\NILSK\DOCUMENTS\GIT\SPIKE10\ZORKISH\ZORKISH\DEBUG\VC140.PDB
^C:\USERS\NILSK\DOCUMENTS\GIT\SPIKE10\ZORKISH\ZORKISH\MAINSTATE.CPP
C:\USERS\NILSK\DOCUMENTS\GIT\SPIKE10\ZORKISH\ZORKISH\DEBUG\VC140.PDB
^C:\USERS\NILSK\DOCUMENTS\GIT\SPIKE10\ZORKISH\ZORKISH\LOCATION.CPP
C:\USERS\NILSK\DOCUMENTS\GIT\SPIKE10\ZORKISH\ZORKISH\DEBUG\VC140.PDB
^C:\USERS\NILSK\DOCUMENTS\GIT\SPIKE10\ZORKISH\ZORKISH\PLAYER.CPP
C:\USERS\NILSK\DOCUMENTS\GIT\SPIKE10\ZORKISH\ZORKISH\DEBUG\VC140.PDB
^C:\USERS\NILSK\DOCUMENTS\GIT\SPIKE10\ZORKISH\ZORKISH\SELECTADVENTURE.CPP
C:\USERS\NILSK\DOCUMENTS\GIT\SPIKE10\ZORKISH\ZORKISH\DEBUG\VC140.PDB
C:\USERS\NILSK\DOCUMENTS\GIT\SPIKE10\ZORKISH\ZORKISH\DEBUG\VC140.IDB
C:\USERS\NILSK\DOCUMENTS\GIT\SPIKE10\ZORKISH\ZORKISH\DEBUG\SELECTADVENTURE.OBJ
^C:\USERS\NILSK\DOCUMENTS\GIT\SPIKE10\ZORKISH\ZORKISH\STATEBASE.CPP
C:\USERS\NILSK\DOCUMENTS\GIT\SPIKE10\ZORKISH\ZORKISH\DEBUG\VC140.PDB
^C:\USERS\NILSK\DOCUMENTS\GIT\SPIKE10\ZORKISH\ZORKISH\STATEMANAGER.CPP
C:\USERS\NILSK\DOCUMENTS\GIT\SPIKE10\ZORKISH\ZORKISH\DEBUG\VC140.PDB
^C:\USERS\NILSK\DOCUMENTS\GIT\SPIKE10\ZORKISH\ZORKISH\GAMEOBJECT.CPP|C:\USERS\NILSK\DOCUMENTS\GIT\SPIKE10\ZORKISH\ZORKISH\HEALTHCOMPONENT.CPP|C:\USERS\NILSK\DOCUMENTS\GIT\SPIKE10\ZORKISH\ZORKISH\LEVELREADER.CPP|C:\USERS\NILSK\DOCUMENTS\GIT\SPIKE10\ZORKISH\ZORKISH\SELECTADVENTURE.CPP|C:\USERS\NILSK\DOCUMENTS\GIT\SPIKE10\ZORKISH\ZORKISH\STATEMANAGER.CPP
C:\USERS\NILSK\DOCUMENTS\GIT\SPIKE10\ZORKISH\ZORKISH\DEBUG\VC140.PDB
C:\USERS\NILSK\DOCUMENTS\GIT\SPIKE10\ZORKISH\ZORKISH\DEBUG\VC140.IDB
C:\USERS\NILSK\DOCUMENTS\GIT\SPIKE10\ZORKISH\ZORKISH\DEBUG\GAMEOBJECT.OBJ
C:\USERS\NILSK\DOCUMENTS\GIT\SPIKE10\ZORKISH\ZORKISH\DEBUG\HEALTHCOMPONENT.OBJ
C:\USERS\NILSK\DOCUMENTS\GIT\SPIKE10\ZORKISH\ZORKISH\DEBUG\LEVELREADER.OBJ
C:\USERS\NILSK\DOCUMENTS\GIT\SPIKE10\ZORKISH\ZORKISH\DEBUG\SELECTADVENTURE.OBJ
C:\USERS\NILSK\DOCUMENTS\GIT\SPIKE10\ZORKISH\ZORKISH\DEBUG\STATEMANAGER.OBJ
^C:\USERS\NILSK\DOCUMENTS\GIT\SPIKE10\ZORKISH\ZORKISH\COMMANDMANAGER.CPP|C:\USERS\NILSK\DOCUMENTS\GIT\SPIKE10\ZORKISH\ZORKISH\GAMELOGIC.CPP|C:\USERS\NILSK\DOCUMENTS\GIT\SPIKE10\ZORKISH\ZORKISH\HEALTHCOMPONENT.CPP|C:\USERS\NILSK\DOCUMENTS\GIT\SPIKE10\ZORKISH\ZORKISH\LEVELREADER.CPP|C:\USERS\NILSK\DOCUMENTS\GIT\SPIKE10\ZORKISH\ZORKISH\SELECTADVENTURE.CPP|C:\USERS\NILSK\DOCUMENTS\GIT\SPIKE10\ZORKISH\ZORKISH\STATEMANAGER.CPP
C:\USERS\NILSK\DOCUMENTS\GIT\SPIKE10\ZORKISH\ZORKISH\DEBUG\VC140.PDB
C:\USERS\NILSK\DOCUMENTS\GIT\SPIKE10\ZORKISH\ZORKISH\DEBUG\VC140.IDB
C:\USERS\NILSK\DOCUMENTS\GIT\SPIKE10\ZORKISH\ZORKISH\DEBUG\HEALTHCOMPONENT.OBJ
C:\USERS\NILSK\DOCUMENTS\GIT\SPIKE10\ZORKISH\ZORKISH\DEBUG\LEVELREADER.OBJ
C:\USERS\NILSK\DOCUMENTS\GIT\SPIKE10\ZORKISH\ZORKISH\DEBUG\COMMANDMANAGER.OBJ
C:\USERS\NILSK\DOCUMENTS\GIT\SPIKE10\ZORKISH\ZORKISH\DEBUG\GAMELOGIC.OBJ
C:\USERS\NILSK\DOCUMENTS\GIT\SPIKE10\ZORKISH\ZORKISH\DEBUG\STATEMANAGER.OBJ
^C:\USERS\NILSK\DOCUMENTS\GIT\SPIKE10\ZORKISH\ZORKISH\COMMANDMANAGER.CPP|C:\USERS\NILSK\DOCUMENTS\GIT\SPIKE10\ZORKISH\ZORKISH\GAMELOGIC.CPP|C:\USERS\NILSK\DOCUMENTS\GIT\SPIKE10\ZORKISH\ZORKISH\GAMEOBJECTHELPER.CPP|C:\USERS\NILSK\DOCUMENTS\GIT\SPIKE10\ZORKISH\ZORKISH\STATEMANAGER.CPP
C:\USERS\NILSK\DOCUMENTS\GIT\SPIKE10\ZORKISH\ZORKISH\DEBUG\VC140.PDB
C:\USERS\NILSK\DOCUMENTS\GIT\SPIKE10\ZORKISH\ZORKISH\DEBUG\VC140.IDB
C:\USERS\NILSK\DOCUMENTS\GIT\SPIKE10\ZORKISH\ZORKISH\DEBUG\COMMANDMANAGER.OBJ
C:\USERS\NILSK\DOCUMENTS\GIT\SPIKE10\ZORKISH\ZORKISH\DEBUG\GAMELOGIC.OBJ
C:\USERS\NILSK\DOCUMENTS\GIT\SPIKE10\ZORKISH\ZORKISH\DEBUG\STATEMANAGER.OBJ
^C:\USERS\NILSK\DOCUMENTS\GIT\SPIKE10\ZORKISH\ZORKISH\GAMEOBJECTHELPER.CPP
C:\USERS\NILSK\DOCUMENTS\GIT\SPIKE10\ZORKISH\ZORKISH\DEBUG\VC140.PDB
C:\USERS\NILSK\DOCUMENTS\GIT\SPIKE10\ZORKISH\ZORKISH\DEBUG\VC140.IDB
C:\USERS\NILSK\DOCUMENTS\GIT\SPIKE10\ZORKISH\ZORKISH\DEBUG\GAMEOBJECTHELPER.OBJ
^C:\USERS\NILSK\DOCUMENTS\GIT\SPIKE10\ZORKISH\ZORKISH\COMMANDMANAGER.CPP|C:\USERS\NILSK\DOCUMENTS\GIT\SPIKE10\ZORKISH\ZORKISH\GAMELOGIC.CPP|C:\USERS\NILSK\DOCUMENTS\GIT\SPIKE10\ZORKISH\ZORKISH\STATEMANAGER.CPP
C:\USERS\NILSK\DOCUMENTS\GIT\SPIKE10\ZORKISH\ZORKISH\DEBUG\VC140.PDB
C:\USERS\NILSK\DOCUMENTS\GIT\SPIKE10\ZORKISH\ZORKISH\DEBUG\VC140.IDB
C:\USERS\NILSK\DOCUMENTS\GIT\SPIKE10\ZORKISH\ZORKISH\DEBUG\COMMANDMANAGER.OBJ
C:\USERS\NILSK\DOCUMENTS\GIT\SPIKE10\ZORKISH\ZORKISH\DEBUG\GAMELOGIC.OBJ
C:\USERS\NILSK\DOCUMENTS\GIT\SPIKE10\ZORKISH\ZORKISH\DEBUG\STATEMANAGER.OBJ
^C:\USERS\NILSK\DOCUMENTS\GIT\SPIKE10\ZORKISH\ZORKISH\ABOUT.CPP|C:\USERS\NILSK\DOCUMENTS\GIT\SPIKE10\ZORKISH\ZORKISH\COMMANDMANAGER.CPP|C:\USERS\NILSK\DOCUMENTS\GIT\SPIKE10\ZORKISH\ZORKISH\GAMELOGIC.CPP|C:\USERS\NILSK\DOCUMENTS\GIT\SPIKE10\ZORKISH\ZORKISH\GAMEOBJECT.CPP|C:\USERS\NILSK\DOCUMENTS\GIT\SPIKE10\ZORKISH\ZORKISH\GAMEOBJECTHELPER.CPP|C:\USERS\NILSK\DOCUMENTS\GIT\SPIKE10\ZORKISH\ZORKISH\HELP.CPP|C:\USERS\NILSK\DOCUMENTS\GIT\SPIKE10\ZORKISH\ZORKISH\HIGHSCORE.CPP|C:\USERS\NILSK\DOCUMENTS\GIT\SPIKE10\ZORKISH\ZORKISH\INVENTORY.CPP|C:\USERS\NILSK\DOCUMENTS\GIT\SPIKE10\ZORKISH\ZORKISH\LEVELREADER.CPP|C:\USERS\NILSK\DOCUMENTS\GIT\SPIKE10\ZORKISH\ZORKISH\LOCATION.CPP|C:\USERS\NILSK\DOCUMENTS\GIT\SPIKE10\ZORKISH\ZORKISH\MAIN.CPP|C:\USERS\NILSK\DOCUMENTS\GIT\SPIKE10\ZORKISH\ZORKISH\MAINSTATE.CPP|C:\USERS\NILSK\DOCUMENTS\GIT\SPIKE10\ZORKISH\ZORKISH\PLAYER.CPP|C:\USERS\NILSK\DOCUMENTS\GIT\SPIKE10\ZORKISH\ZORKISH\SELECTADVENTURE.CPP|C:\USERS\NILSK\DOCUMENTS\GIT\SPIKE10\ZORKISH\ZORKISH\STATEBASE.CPP|C:\USERS\NILSK\DOCUMENTS\GIT\SPIKE10\ZORKISH\ZORKISH\STATEMANAGER.CPP
C:\USERS\NILSK\DOCUMENTS\GIT\SPIKE10\ZORKISH\ZORKISH\DEBUG\VC140.PDB
C:\USERS\NILSK\DOCUMENTS\GIT\SPIKE10\ZORKISH\ZORKISH\DEBUG\VC140.IDB
C:\USERS\NILSK\DOCUMENTS\GIT\SPIKE10\ZORKISH\ZORKISH\DEBUG\LEVELREADER.OBJ
^C:\USERS\NILSK\DOCUMENTS\GIT\SPIKE10\ZORKISH\ZORKISH\ABOUT.CPP|C:\USERS\NILSK\DOCUMENTS\GIT\SPIKE10\ZORKISH\ZORKISH\COMMANDMANAGER.CPP|C:\USERS\NILSK\DOCUMENTS\GIT\SPIKE10\ZORKISH\ZORKISH\GAMELOGIC.CPP|C:\USERS\NILSK\DOCUMENTS\GIT\SPIKE10\ZORKISH\ZORKISH\HELP.CPP|C:\USERS\NILSK\DOCUMENTS\GIT\SPIKE10\ZORKISH\ZORKISH\HIGHSCORE.CPP|C:\USERS\NILSK\DOCUMENTS\GIT\SPIKE10\ZORKISH\ZORKISH\LEVELREADER.CPP|C:\USERS\NILSK\DOCUMENTS\GIT\SPIKE10\ZORKISH\ZORKISH\LOCATION.CPP|C:\USERS\NILSK\DOCUMENTS\GIT\SPIKE10\ZORKISH\ZORKISH\MAIN.CPP|C:\USERS\NILSK\DOCUMENTS\GIT\SPIKE10\ZORKISH\ZORKISH\MAINSTATE.CPP|C:\USERS\NILSK\DOCUMENTS\GIT\SPIKE10\ZORKISH\ZORKISH\PLAYER.CPP|C:\USERS\NILSK\DOCUMENTS\GIT\SPIKE10\ZORKISH\ZORKISH\SELECTADVENTURE.CPP|C:\USERS\NILSK\DOCUMENTS\GIT\SPIKE10\ZORKISH\ZORKISH\STATEBASE.CPP|C:\USERS\NILSK\DOCUMENTS\GIT\SPIKE10\ZORKISH\ZORKISH\STATEMANAGER.CPP
C:\USERS\NILSK\DOCUMENTS\GIT\SPIKE10\ZORKISH\ZORKISH\DEBUG\VC140.PDB
C:\USERS\NILSK\DOCUMENTS\GIT\SPIKE10\ZORKISH\ZORKISH\DEBUG\VC140.IDB
C:\USERS\NILSK\DOCUMENTS\GIT\SPIKE10\ZORKISH\ZORKISH\DEBUG\ABOUT.OBJ
C:\USERS\NILSK\DOCUMENTS\GIT\SPIKE10\ZORKISH\ZORKISH\DEBUG\LEVELREADER.OBJ
C:\USERS\NILSK\DOCUMENTS\GIT\SPIKE10\ZORKISH\ZORKISH\DEBUG\LOCATION.OBJ
