^C:\USERS\NILSK\DOCUMENTS\GIT\SPIKE9\ZORKISH\ZORKISH\DEBUG\ABOUT.OBJ|C:\USERS\NILSK\DOCUMENTS\GIT\SPIKE9\ZORKISH\ZORKISH\DEBUG\COMMANDMANAGER.OBJ|C:\USERS\NILSK\DOCUMENTS\GIT\SPIKE9\ZORKISH\ZORKISH\DEBUG\GAMELOGIC.OBJ|C:\USERS\NILSK\DOCUMENTS\GIT\SPIKE9\ZORKISH\ZORKISH\DEBUG\GAMEOBJECT.OBJ|C:\USERS\NILSK\DOCUMENTS\GIT\SPIKE9\ZORKISH\ZORKISH\DEBUG\HELP.OBJ|C:\USERS\NILSK\DOCUMENTS\GIT\SPIKE9\ZORKISH\ZORKISH\DEBUG\HIGHSCORE.OBJ|C:\USERS\NILSK\DOCUMENTS\GIT\SPIKE9\ZORKISH\ZORKISH\DEBUG\INVENTORY.OBJ|C:\USERS\NILSK\DOCUMENTS\GIT\SPIKE9\ZORKISH\ZORKISH\DEBUG\LEVELREADER.OBJ|C:\USERS\NILSK\DOCUMENTS\GIT\SPIKE9\ZORKISH\ZORKISH\DEBUG\LOCATION.OBJ|C:\USERS\NILSK\DOCUMENTS\GIT\SPIKE9\ZORKISH\ZORKISH\DEBUG\MAIN.OBJ|C:\USERS\NILSK\DOCUMENTS\GIT\SPIKE9\ZORKISH\ZORKISH\DEBUG\MAINSTATE.OBJ|C:\USERS\NILSK\DOCUMENTS\GIT\SPIKE9\ZORKISH\ZORKISH\DEBUG\PLAYER.OBJ|C:\USERS\NILSK\DOCUMENTS\GIT\SPIKE9\ZORKISH\ZORKISH\DEBUG\SELECTADVENTURE.OBJ|C:\USERS\NILSK\DOCUMENTS\GIT\SPIKE9\ZORKISH\ZORKISH\DEBUG\STATEBASE.OBJ|C:\USERS\NILSK\DOCUMENTS\GIT\SPIKE9\ZORKISH\ZORKISH\DEBUG\STATEMANAGER.OBJ
C:\USERS\NILSK\DOCUMENTS\GIT\SPIKE9\ZORKISH\DEBUG\ZORKISH.ILK
C:\USERS\NILSK\DOCUMENTS\GIT\SPIKE9\ZORKISH\DEBUG\ZORKISH.EXE
C:\USERS\NILSK\DOCUMENTS\GIT\SPIKE9\ZORKISH\DEBUG\ZORKISH.PDB
^C:\USERS\NILSK\DOCUMENTS\GIT\SPIKE10\ZORKISH\ZORKISH\DEBUG\ABOUT.OBJ|C:\USERS\NILSK\DOCUMENTS\GIT\SPIKE10\ZORKISH\ZORKISH\DEBUG\COMMANDMANAGER.OBJ|C:\USERS\NILSK\DOCUMENTS\GIT\SPIKE10\ZORKISH\ZORKISH\DEBUG\GAMELOGIC.OBJ|C:\USERS\NILSK\DOCUMENTS\GIT\SPIKE10\ZORKISH\ZORKISH\DEBUG\GAMEOBJECT.OBJ|C:\USERS\NILSK\DOCUMENTS\GIT\SPIKE10\ZORKISH\ZORKISH\DEBUG\GAMEOBJECTHELPER.OBJ|C:\USERS\NILSK\DOCUMENTS\GIT\SPIKE10\ZORKISH\ZORKISH\DEBUG\HEALTHCOMPONENT.OBJ|C:\USERS\NILSK\DOCUMENTS\GIT\SPIKE10\ZORKISH\ZORKISH\DEBUG\HELP.OBJ|C:\USERS\NILSK\DOCUMENTS\GIT\SPIKE10\ZORKISH\ZORKISH\DEBUG\HIGHSCORE.OBJ|C:\USERS\NILSK\DOCUMENTS\GIT\SPIKE10\ZORKISH\ZORKISH\DEBUG\INVENTORY.OBJ|C:\USERS\NILSK\DOCUMENTS\GIT\SPIKE10\ZORKISH\ZORKISH\DEBUG\LEVELREADER.OBJ|C:\USERS\NILSK\DOCUMENTS\GIT\SPIKE10\ZORKISH\ZORKISH\DEBUG\LOCATION.OBJ|C:\USERS\NILSK\DOCUMENTS\GIT\SPIKE10\ZORKISH\ZORKISH\DEBUG\MAIN.OBJ|C:\USERS\NILSK\DOCUMENTS\GIT\SPIKE10\ZORKISH\ZORKISH\DEBUG\MAINSTATE.OBJ|C:\USERS\NILSK\DOCUMENTS\GIT\SPIKE10\ZORKISH\ZORKISH\DEBUG\PLAYER.OBJ|C:\USERS\NILSK\DOCUMENTS\GIT\SPIKE10\ZORKISH\ZORKISH\DEBUG\SELECTADVENTURE.OBJ|C:\USERS\NILSK\DOCUMENTS\GIT\SPIKE10\ZORKISH\ZORKISH\DEBUG\STATEBASE.OBJ|C:\USERS\NILSK\DOCUMENTS\GIT\SPIKE10\ZORKISH\ZORKISH\DEBUG\STATEMANAGER.OBJ
C:\USERS\NILSK\DOCUMENTS\GIT\SPIKE10\ZORKISH\DEBUG\ZORKISH.ILK
C:\USERS\NILSK\DOCUMENTS\GIT\SPIKE10\ZORKISH\DEBUG\ZORKISH.EXE
C:\USERS\NILSK\DOCUMENTS\GIT\SPIKE10\ZORKISH\DEBUG\ZORKISH.PDB
